Calculate deuteration — calculate_state_deuteration • HaDeX
…
    See also

    read_hdx calculate_confidence_limit_values add_stat_dependency

    Examples

# load example data
dat <- read_hdx(system.file(package = "HaDeX", "HaDeX/data/KD_180110_CD160_HVEM.csv"))

# calculate deuteration for state "CD160"
calculate_state_deuteration(dat, protein = "db_CD160", state = "CD160",
                            time_in = 0, time_chosen = 5.000, time_out = 1440.000)

#> # A tibble: 41 × 14
#>    Protein  Sequence          Start   End State frac_exch_state err_frac_exch_s…
#>    <chr>    <chr>             <int> <int> <chr>           <dbl>            <dbl>
#>  1 db_CD160 INITSSASQEGTRLN       1    15 CD160            87.6            0.592
#>  2 db_CD160 LICTVW               16    21 CD160            41.7            0.581
#>  3 db_CD160 LICTVWHKKEEAEG       16    29 CD160            72.1            1.07 
#>  4 db_CD160 ICTVWHKKEEAEG        17    29 CD160            75.6            0.780
#>  5 db_CD160 FVVFL                30    34 CD160            40.1            1.85 
#>  6 db_CD160 LCKDRSGDCSPETSL      34    48 CD160            97.6            0.552
#>  7 db_CD160 LCKDRSGDCSPETSLK     34    49 CD160            97.2            0.497
#>  8 db_CD160 LCKDRSGDCSPETSLK…    34    51 CD160            95.3            0.359
#>  9 db_CD160 LCKDRSGDCSPETSLK…    34    69 CD160            93.6            0.336
#> 10 db_CD160 CKDRSGDCSPETSL       35    48 CD160            97.2            0.693
#> # … with 31 more rows, and 7 more variables: abs_frac_exch_state <dbl>,
#> #   err_abs_frac_exch_state <dbl>, avg_theo_in_time <dbl>,
#> #   err_avg_theo_in_time <dbl>, abs_avg_theo_in_time <dbl>,
#> #   err_abs_avg_theo_in_time <dbl>, Med_Sequence <dbl>
…
