calculate_state_deuteration — calculate_state_deuteration • HaDeX
…
      time_out
      time out

    Value

    data.frame

    Examples

dat <- read_hdx(system.file(package = "HaDeX", "HaDeX/data/KD_180110_CD160_HVEM.csv"))
calculate_state_deuteration(dat, protein = "db_CD160", state = "CD160",
                            time_in = 0, time_chosen = 5.000, time_out = 1440.000)
#> # A tibble: 41 x 14
#>    Protein Sequence Start   End State frac_exch_state err_frac_exch_s…
#>    <chr>   <chr>    <int> <int> <chr>           <dbl>            <dbl>
#>  1 db_CD1… INITSSA…     1    15 CD160           0.876          0.00395
#>  2 db_CD1… LICTVW      16    21 CD160           0.417          0.00346
#>  3 db_CD1… LICTVWH…    16    29 CD160           0.721          0.00711
#>  4 db_CD1… ICTVWHK…    17    29 CD160           0.756          0.00520
#>  5 db_CD1… FVVFL       30    34 CD160           0.401          0.0123 
#>  6 db_CD1… LCKDRSG…    34    48 CD160           0.976          0.00368
#>  7 db_CD1… LCKDRSG…    34    49 CD160           0.972          0.00331
#>  8 db_CD1… LCKDRSG…    34    51 CD160           0.953          0.00240
#>  9 db_CD1… LCKDRSG…    34    69 CD160           0.936          0.00222
#> 10 db_CD1… CKDRSGD…    35    48 CD160           0.972          0.00462
#> # … with 31 more rows, and 7 more variables: abs_frac_exch_state <dbl>,
#> #   err_abs_frac_exch_state <dbl>, avg_theo_in_time <dbl>,
#> #   err_avg_theo_in_time <dbl>, abs_avg_theo_in_time <dbl>,
#> #   err_abs_avg_theo_in_time <dbl>, Med_Sequence <dbl>
…
