Show overlap distribution data — create_overlap_distribution_dataset • HaDeX
…
    See also

    read_hdx
reconstruct_sequence

    Examples

dat <- read_hdx(system.file(package = "HaDeX", "HaDeX/data/KD_180110_CD160_HVEM.csv"))

#> [1] ""
create_overlap_distribution_dataset(dat)

#> Joining, by = "pos"
#> Joining, by = "pos"
#> # A tibble: 132 x 3
#>      pos amino coverage
#>    <int> <chr>    <dbl>
#>  1     1 I            1
#>  2     2 N            1
#>  3     3 I            1
#>  4     4 T            1
#>  5     5 S            1
#>  6     6 S            1
#>  7     7 A            1
#>  8     8 S            1
#>  9     9 Q            1
#> 10    10 E            1
#> # ... with 122 more rows
…
